{
    "pt_minimum": 500,
    "abs_eta_maximum": 2.5,
    "d0_maximum": 5.0,
    "z0_maximum": 5.0,
    "si_hits_minimum": 7,
    "si_shared_maximum": 99,
    "si_holes_maximum": 2,
    "pix_holes_maximum": 1
}
