{
    "jet_collection": "AntiKt4TruthJets",
    "calibration": {},
    "selection": {
        "minimum_jet_pt": 20000,
        "maximum_jet_absolute_eta": 2.5,
        "jet_cleaning": "event"
    },
    "vertex_collection": "PrimaryVertices",
    "dl2_configs": [],
    "variables": {
        "btag": {
            "jet_int_variables": [
                "HadronConeExclTruthLabelID",
                "HadronConeExclExtendedTruthLabelID",
                "PartonTruthLabelID",
                "jetPtRank"
            ],
            "jet_floats": [
                "pt",
                "eta",
                "mass",
                "energy"
            ],
            "event": [
                "mcEventWeight",
                "eventNumber",
                "averageInteractionsPerCrossing",
                "actualInteractionsPerCrossing",
                "nPrimaryVertices"
            ]
        },
        "default_mapping": {
            "file": "fragments/default-mapping.json"
        }
    },
    "tracks": [],
    "truths": [
        {
            "association_name": "constituentLinks",
            "output": {
                "n_to_save": 20,
                "sort_order": "pt"
            }
        }
    ],
    "decorate": {},
    "btagging_link": ""
}
